{
    "type": "mysql",
    "host": "localhost",
    "port": 3306,
    "username": "nest_db_user",
    "password": "nest_db_user0!",
    "database": "nest_db_users",
    "entities": [
        "dist/**/*.entity.js"
    ],
    "synchronize": true
}